3262
2465
1493
1529
1555
1588
1651
1649
1757
1778
1687
1733
1962
2021
2006
1839
1433
3628
4548
1563
1633
1622
1637
1658
1642
0
-1625
-1382
-1569
-417
0
0
-210
-362
-343
-82
208
0
0
0
1680
3959
4293
4559
1038
967
994
921
887
1235
1396
1498
1073
802
771
0
0
0
0
0
3719
4419
4284
3915
3585
3638
3950
4454
4655
3189
868
819
1381
1441
1603
2045
1409
1340
1329
1365
1227
1118
1195
1125
1194
1375
4900
4994
4488
4546
0
5015
4799
4675
4684
4686
3314
897
922
876
639
1740
4389
3854
3843
3904
4056
4123
0
0
0
-108
-516
3583
3628
4199
4695
4640
4629
4618
4430
4423
4479
4623
4410
4352
4350
4246
4221
4211
4297
4370
4547
4635
431
-39
-540
3152
3355
-257
0
4137
4154
4167
3646
3825
4004
4322
3677
3250
2828
2090
2191
2541
0
0
0
177
370
564
481
520
243
84
-581
3471
3441
3484
3632
1037
-465
-452
-507
764
3253
0
0
13
0
0
3008
3075
3172
3141
2730
0
2863
3481
3772
3854
1919
-136
537
0
741
890
0
533
1004
3159
2883
2818
3020
3288
3648
3815
3932
3736
3490
3474
3849
4492
1705
745
799
750
937
0
1056
-684
-1043
-953
994
1057
1067
1311
1326
1358
1408
1440
1178
1051
663
618
1015
1702
1664
1650
1577
1547
1921
1979
1762
1588
1419
1292
1294
818
0
804
896
911
968
1058
1050
932
566
0
0
775
967
1028
979
979
704
934
1061
1038
0
0
3551
2895
3122
3222
3567
3577
3498
3208
3251
2908
2527
2502
2814
3510
3837
0
0
0
-147
0
0
0
-171
-226
2808
2178
2298
2728
3106
3450
3568
3675
3423
3071
2591
0
-1321
3349
3866
3808
3846
3644
2341
0
0
-50
-78
2053
2826
0
2210
2642
3019
3253
-617
-706
-953
-1231
0
0
-1126
-373
4110
4060
4084
3984
4306
3609
301
0
-45
-103
3370
2765
2690
2864
3093
3306
3637
3695
3677
3582
3080
2895
3109
3687
4081
3274
2010
0
479
0
646
0
1916
4351
3783
-1071
-1155
-1121
-1044
-815
-382
-137
-118
-205
-567
-744
-431
0
467
4433
4450
4508
4654
4500
4515
4531
4547
4604
4601
4143
-331
-276
-240
-120
4115
4053
-105
-170
-273
-376
0
4761
4716
4725
4746
4762
4551
4607
4721
4602
4481
4504
4441
4399
4214
4228
3973
3895
3864
3973
4533
4356
3822
-217
-120
4352
4388
4456
4415
4412
4084
4269
4174
4119
3556
-448
2676
0
0
0
0
2675
2856
0
0
0
0
0
2334
2974
-378
-452
-473
-489
3818
3783
3672
3678
3385
-606
2607
1991
1763
2250
2499
2648
2956
2868
0
0
0
1906
2223
2801
3331
-655
-706
-709
-687
3331
3520
3319
-714
-712
2104
1685
1823
2221
2574
2901
3039
2957
2839
0
0
2336
2827
3438
3521
-476
-423
-480
3916
4263
4184
4195
3995
3872
3775
3076
2750
2706
2786
3037
3305
-493
-596
-706
0
2610
2977
3445
3878
-95
3872
-127
4347
4322
4328
4375
4319
4366
4165
3147
2951
2850
2893
3120
3474
3823
-239
-216
-461
3417
3733
4206
4283
4317
4251
4274
4864
4912
5077
4886
4875
4912
4854
4215
3901
-195
-4
0
0
4338
0
0
0
-114
4252
860
4807
4796
4781
4816
4768
4918
5002
5066
4752
4738
4802
4785
4592
4538
4646
4617
4847
4832
4791
4792
4451
0
0
4439
4749
4730
4759
4683
3881
4091
4075
4014
3452
3273
0
0
0
0
0
-1319
-1199
0
0
0
0
0
0
0
-720
285
3265
3275
3497
3582
3641
3583
3618
3698
0
0
0
0
0
-1061
-1122
-1107
0
0
0
0
0
-867
-328
-391
-399
3639
3778
4045
4153
4188
3727
3608
0
0
0
0
2816
2799
2903
2762
2646
2483
2046
0
0
2928
3536
3568
3575
2022
-91
-16
0
0
0
1743
3469
2698
2281
2223
2156
2497
2768
3005
-797
-599
-1065
0
0
-642
-106
-50
3917
3932
4203
4508
4584
4626
4341
4326
0
-689
0
0
0
0
-1000
-458
-320
-353
-692
3011
3209
-327
0
0
0
4029
3813
3886
3889
3933
3886
3885
3879
3376
-758
-618
-337
-148
4102
4174
0
-181
-770
-1145
-666
-333
-156
3798
3783
3777
2761
2839
2727
2703
2646
2648
2642
2536
2476
2541
2660
2768
3023
3053
3034
2887
0
0
0
-1030
2857
2841
2826
2862
2422
2567
2665
2525
2069
0
0
0
0
0
0
0
0
0
0
0
0
0
0
1722
2149
0
2228
2224
0
0
0
0
0
0
0
0
0
0
0
0
0
0
0
0
0
0
0
1524
1874
0
0
0
0
0
0
0
0
0
0
0
0
0
0
0
0
0
0
0
0
0
0
1443
1948
0
0
0
21
28
0
72
97
0
1601
0
0
0
0
0
0
0
0
0
0
0
0
1675
2012
0
2129
2037
0
2279
2320
2371
2269
0
2005
0
0
0
0
0
1886
2052
0
0
86
0
1468
2068
2292
2272
2234
2264
2371
2398
0
0
0
675
2168
1875
0
0
0
908
2540
2619
2534
0
0
0
0
2345
2422
2493
2453
2455
3193
-822
-775
-652
-783
492
3295
3379
3328
3223
3280
3515
3502
3466
3488
3224
3127
0
2574
3062
3260
3250
3247
3242
2875
3081
2973
1130
2525
2663
0
0
0
0
0
0
0
0
0
0
0
0
1779
2808
2992
-957
3050
2972
2938
3126
3153
3105
2790
2539
1939
1542
1475
1219
0
0
0
0
0
0
0
0
607
2130
0
0
0
0
0
2374
2429
0
0
0
0
0
0
0
0
0
0
0
0
0
0
0
0
0
0
0
0
0
0
2852
2554
2533
0
0
2225
1677
849
0
0
0
0
0
0
0
0
0
0
0
0
0
0
0
0
2575
2750
2538
0
0
0
0
0
0
0
0
0
-1340
-1331
0
0
0
0
0
0
0
0
0
2895
2929
2893
2850
2832
2864
2822
0
0
-1381
2800
3040
3234
3241
3117
3093
-1103
0
-1194
-817
-797
3246
3175
3159
3434
3388
3396
3460
3403
3399
3445
3378
3147
3207
3316
3520
3617
3755
3681
3678
3364
2769
-1167
3123
3478
3402
3364
3378
2704
2881
2876
2777
2405
2393
0
0
0
0
0
0
0
0
0
0
0
0
0
0
0
0
0
0
2709
2881
2937
2934
3073
0
0
0
0
0
0
0
0
0
0
0
0
0
0
0
0
0
-1230
0
0
2406
2421
2378
0
0
0
0
0
0
0
0
0
0
0
0
0
0
0
0
0
0
0
0
0
1350
2422
2446
0
0
0
0
0
0
0
0
0
0
0
0
0
0
0
0
0
0
0
0
2444
2427
2451
2405
2393
2382
0
0
1339
1410
1614
2010
2536
2712
2981
-1224
0
0
0
0
0
0
2563
2482
3073
3122
2158
1008
659
1710
3003
2538
2612
2624
2891
3105
3410
3612
3558
3505
3063
0
-1270
-712
3338
3262
3227
3241
3214
3205
3260
3178
3167
3163
3224
3164
3022
2945
3070
3149
3382
3392
3376
3277
3099
2847
-1271
-849
3268
3176
3166
3212
2711
0
-1064
-1097
-1458
2434
1580
0
0
0
0
0
-1627
0
0
0
0
0
0
0
-1301
-1258
2697
2695
2968
2893
2941
2910
2899
2936
0
0
0
0
0
0
0
0
0
0
0
0
0
0
-1132
-1110
-1166
2994
3116
3401
3412
3385
3033
-1121
0
0
0
0
0
0
-1553
0
0
0
0
0
0
0
-1170
-1107
-1182
-1207
2814
3007
3056
3147
2953
0
0
0
0
0
0
0
0
0
0
0
0
0
0
0
0
-1392
-1406
2625
2601
2569
2562
2670
2632
2558
0
0
0
0
0
-1671
-1123
-970
-921
-975
-1216
0
0
0
-1241
-1215
-1276
2732
3200
3133
3168
3120
3048
3076
3032
-1259
-1216
3025
3109
3178
3318
3283
3135
3124
2868
0
0
2859
2978
3022
2979
2625
837
-519
-541
-508
-412
-476
-510
-573
-636
-406
-289
-226
2113
-60
-56
3765
3706
3953
3236
3938
3818
3829
3791
3936
1539
-83
-189
-113
-540
3031
2408
2048
2527
1900
1961
2113
2823
2901
2664
-1418
0
0
0
-477
3282
3374
3551
3042
2375
-149
-273
1356
3111
2796
0
0
0
2422
2548
2795
2937
2799
-1408
0
0
0
0
0
-1188
-1074
2978
2917
3100
3391
3303
3377
3708
3221
0
0
0
0
2396
2608
0
2395
0
0
0
0
0
0
-1009
-1005
3163
2985
3092
3150
3124
3215
3118
-940
2693
2262
0
0
0
0
-1241
-1146
-1165
-1284
0
0
0
0
-945
-816
-960
-946
-963
3332
3059
3280
3076
-1025
2843
2406
2168
0
0
0
-1235
-936
-1002
-998
-1134
0
0
0
-1049
-1017
-1062
-1066
3172
3213
3153
3136
3093
3110
3084
2835
2746
2928
3347
2228
3292
2756
3715
3554
3349
2906
-1279
-744
3210
3180
3244
3166
3441
3436
3482
3417
3413
3410
3517
3581
3705
2528
0
0
567
659
664
3684
4009
3539
-725
-372
3627
3629
3545
3516
3321
3366
3394
3233
2867
2744
0
0
0
-1596
-1249
-1173
-958
-1072
-1262
-1173
-1341
0
0
0
-1091
-1129
-1095
2853
3069
3526
3175
3385
2895
285
0
0
0
-1652
-1291
-1026
-899
-1075
-1051
-1056
-1199
0
0
-522
-943
-908
-872
3030
3417
3400
3500
3461
3461
-487
0
0
0
0
0
0
0
0
0
0
0
0
0
0
-770
-839
-845
-819
3290
3457
3613
3581
3375
-776
-726
-1119
0
0
0
-1439
-1194
-1087
-895
-877
-929
0
0
-1090
-597
-558
-641
-663
3181
3254
3374
3370
3184
-927
-912
0
0
0
0
0
-1222
-1080
-955
-1048
-1057
0
0
-1171
-779
-800
-793
-911
3244
3253
3206
3222
3231
3300
3336
-1077
-1129
-1066
3229
3413
-431
3664
3454
-559
-714
-985
-1276
-768
-557
3394
3382
3424
3696
3679
3721
3666
3663
3712
3715
3855
3983
3768
3492
3303
3119
3014
3209
3390
4078
3591
3418
3822
3965
3908
3923
3857
3600
3611
2843
3686
3339
3331
2890
0
2556
2593
2844
3009
2923
3217
2936
-1194
-1198
-1263
0
-1049
-541
-427
3515
3549
3429
3799
3610
3574
3149
-879
-1379
0
-1628
-1332
-1014
3171
-733
3294
-886
-1103
-1125
-1507
0
-1329
-812
-805
-890
3081
3147
3103
3251
3116
2891
-1101
0
0
0
-1418
-1120
-932
-722
-683
-719
-668
-692
-1540
0
-1319
-927
-1028
-1031
2893
3012
3089
3059
3132
2889
-1066
-956
-1394
-1615
-1499
-1477
-1270
-863
-701
-608
-587
-599
-1116
0
0
-994
-949
-1007
-1017
3105
3055
3135
3159
2972
-1047
-1011
-1323
-1466
-1438
-1455
-1003
-685
-524
-316
0
-310
-1073
0
-1010
-843
-843
-799
-869
3572
3588
3528
3520
3556
3489
3526
3361
-508
-419
-28
0
435
426
491
0
3692
-423
-506
3867
3900
3856
3922
3869
4303
2770
2198
3746
4159
4197
4164
3810
3620
3537
3331
3199
3075
3049
3051
3430
3752
3994
-213
-59
0
-28
-31
3890
3364
3440
3449
3335
3019
-946
0
0
0
-1608
-1459
-1141
-954
-968
-1053
-917
-883
-1297
0
0
-747
-719
-788
-810
3352
3316
3378
3437
-730
-746
-1159
0
-1322
-786
-449
-267
-280
-209
-359
-510
-575
-981
-1345
-868
-351
-444
-423
3494
3374
3505
3581
3422
3252
-714
-1239
2621
2905
-683
-576
-458
-463
-48
-515
-868
-975
-1210
-1311
3323
-106
-14
-77
3937
4069
4116
4249
4182
3840
3712
-267
-990
-1330
-1430
-1403
0
0
0
0
0
0
0
0
-1119
-524
-257
-216
3733
4240
4166
4195
4159
4240
4106
-180
-922
-1157
-1319
-1307
-1093
-703
3561
3598
-243
-272
-336
-646
-130
0
0
0
4081
4179
4251
4341
4271
4177
4106
4222
4143
4015
3976
3933
3796
3739
3778
3833
4013
4102
3857
3409
3757
4175
1348
0
0
-109
0
107
90
0
-4
0
0
0
487
735
669
784
879
862
711
759
587
0
0
598
660
663
0
0
0
0
0
0
0
2893
2390
2392
2874
3109
3207
3338
2580
3280
3360
3405
-982
-890
-752
-407
-372
3563
3576
3607
-406
-376
-419
-339
-373
3020
2690
2496
2628
2946
3191
3548
3851
3750
3461
3212
3318
3427
3722
3864
3686
1060
-220
1261
1192
1253
1031
597
624
4091
3260
3124
3282
3562
3623
3395
2976
3772
3774
3695
-358
-241
-73
4383
4572
4513
4565
4309
2383
3891
4392
4381
4365
4482
4084
-318
-652
3328
3182
3606
3587
3737
3881
3928
-247
-187
-30
4330
4362
4283
4256
4359
4503
4734
5075
4445
4241
4376
4215
3829
3702
3754
3927
4334
3641
4056
4464
4499
4159
3833
3738
4152
4321
4348
4270
4321
4299
4326
4242
4235
4358
4523
4153
4038
4233
4363
4210
4146
4209
4382
4561
4679
4769
4634
4541
4516
4553
4465
4459
4813
4786
4750
4775
4682
4696
4878
4563
4262
2101
1138
1235
1335
1266
1190
3133
4170
5107
4856
4701
4900
4983
4939
4936
4718
4902
4719
4697
4688
4762
4892
4657
4511
3475
2823
3470
4159
2533
3593
4587
4873
4859
4692
4777
4895
4829
4810
4792
4487
4625
4648
4623
4288
4234
3918
3291
3242
-455
3598
3912
4015
-116
-133
-262
-232
-195
-311
-138
0
396
4403
4444
4468
4724
4815
4748
4352
4312
3890
3474
-655
-364
-237
-88
0
-100
-350
-336
-202
-101
-179
353
285
387
4305
4276
4198
4424
4338
4436
4143
4190
4262
-244
-458
-376
-269
-92
3602
3648
3651
815
880
651
387
0
424
462
4407
4422
4503
4548
4664
4557
4510
4491
4388
-97
-22
0
0
559
949
1263
1353
1451
536
0
771
599
696
801
4918
4940
4880
4853
4902
4934
4870
4724
4176
4470
4523
4440
4543
4607
4571
4731
4724
4661
4749
4726
4659
4626
4674
4232
4319
4408
1496
1496
1661
1665
3629
2978
1578
1166
830
2197
3804
3863
3967
3982
4114
4520
4447
4356
4443
3868
4233
4594
1435
1409
873
1151
1126
1112
685
1520
4309
4095
4489
4950
5089
5229
5183
5188
0
0
0
0
0
4629
4958
5169
4981
4837
4704
4874
4842
4819
4313
4452
0
-156
-248
4084
3458
3226
0
0
0
0
0
0
314
376
535
5001
4962
4891
5501
5441
5392
5401
5249
5393
4970
0
0
5270
4905
4811
5024
0
0
0
0
5796
842
849
1200
1182
5045
5108
5148
5030
5071
5167
5192
4832
4865
0
0
0
0
0
0
0
0
0
0
5374
5166
5146
5232
5257
5306
5246
4833
4834
4896
4888
4947
4892
4847
5235
0
0
0
0
0
0
0
0
0
0
4723
4972
5099
5143
4888
4915
4693
4764
4854
4933
4936
4835
4690
4590
4483
4223
3872
3738
3712
3853
3962
4290
4454
1093
4691
4794
4873
4986
4916
4898
4955
4858
4851
4855
4898
4999
4265
2454
1534
1644
1772
1873
2211
2224
2224
2224
2224
2098
4139
4746
4937
4768
4723
4757
4661
4782
4819
4868
4549
4770
4489
0
4169
3720
949
1132
1353
1291
1200
890
362
0
418
571
876
915
4951
4866
4794
4916
5006
4866
4498
4600
4529
4113
4223
0
0
0
0
0
0
0
0
0
0
5219
5247
5020
4869
5016
5057
5024
5027
5082
4544
4742
4369
-40
0
0
0
0
0
0
0
0
0
0
4746
4769
4958
5059
4834
4742
4772
4936
4875
4956
4642
4769
3857
0
0
0
4098
4216
0
0
0
0
0
0
0
0
4615
4637
4612
4530
4805
4732
4883
4778
4697
4359
4607
4344
4216
4462
0
0
0
0
0
0
0
0
868
877
833
919
4750
4851
4803
4813
4862
4912
4803
4588
4085
4308
4431
4461
4218
4246
4308
4744
4803
4798
4769
4364
3963
3965
4434
4255
4121
4177
4617
4584
4541
4681
4717
4494
4340
3905
4161
4344
4414
4398
4373
4363
4549
4686
4711
4537
3840
4137
4666
4734
4760
4797
5209
5237
5257
5295
5284
4999
4979
0
0
0
4859
4861
5101
5239
5347
5271
5255
5283
5469
5431
5438
5026
4910
4976
4821
4846
4918
5004
5062
4914
4651
0
0
0
4882
4612
4582
0
0
0
0
347
713
990
907
939
4869
5082
4998
5220
5351
5206
4700
4744
4601
-52
0
4122
3505
3278
3339
3488
4558
0
0
0
0
497
669
738
4659
4675
4597
4798
4636
4772
4543
4774
4441
785
0
0
0
0
0
0
0
0
0
0
382
618
716
4759
4717
4764
4733
4662
4692
4738
4732
2224
2224
2224
1921
3719
4885
4820
4714
4683
4741
4779
4643
4538
4485
4556
4625
4587
4536
4549
4316
2691
2363
3392
4686
4595
4458
4431
4488
3875
4440
4596
4493
4697
4879
5097
5071
4883
4715
4522
4588
4623
4728
4934
4638
2924
1960
1946
2738
3150
3581
3339
4444
4342
4361
4513
4663
4838
5026
5181
5204
5049
5129
4953
4918
4673
4479
4364
5587
5690
5639
5589
5543
5457
5874
6186
6186
5981
5543
5430
5562
5705
5800
6156
6186
6186
5950
5754
5716
5438
5294
5373
5840
5801
5775
5742
5705
5525
5810
6125
5616
5674
5322
5202
5313
5646
5831
6107
6186
6186
6092
5904
5828
5586
5463
5505
5497
5457
5461
5509
5512
5513
6104
6186
6186
6186
6186
6113
772
844
965
1145
1209
1274
1378
5816
5902
6027
6122
6020
4971
2680
1921
1982
1981
1568
3930
5032
5135
5154
5044
5143
5101
5125
5124
5414
5566
5532
5339
5043
5168
5283
5443
5522
5143
5162
0
5102
4885
3591
3240
3922
4297
4545
4550
4532
4408
4494
4647
4798
4774
4574
4092
3956
4109
4482
4271
4361
4977
4899
4916
4944
4819
4580
4452
4522
4582
4653
4712
4726
4724
4456
4801
4790
4733
4915
4956
4757
4662
4566
4591
3258
1510
1658
1732
1555
1600
1695
1917
2173
1792
3400
1968
1994
2102
4538
4642
4599
4454
4359
4646
4698
4906
5096
5252
5345
5414
5475
5302
5664
5496
4535
4357
1024
733
533
4905
4934
5166
5334
5647
5868
6030
5922
1374
1951
2070
2104
2098
2093
5444
5458
5408
5406
5514
5348
1048
640
5543
5352
5021
5055
5263
5471
5690
5964
6102
6159
5868
5792
5626
5404
5020
4727
5134
5240
5381
5576
5566
5365
5438
5797
5647
5389
5109
5037
5234
5395
5630
5987
6095
6064
5669
5578
5587
5559
5558
5639
5167
5086
5160
5169
4229
2882
2142
5135
5280
5356
5163
5128
5192
5162
5229
5497
5626
5654
5382
5362
5482
5557
5691
5816
5380
4477
3450
3291
3832
4389
3942
3981
4668
5368
5265
5228
5194
5199
5248
5518
5588
5592
5282
4992
5042
5094
5174
5204
5363
5495
5286
5449
5308
2169
1184
2040
4578
4716
4548
4598
4605
4806
4805
4801
4787
4919
4937
4780
4628
4537
4351
4377
2105
1295
1249
1274
1300
1421
1571
1490
1257
4020
1394
1355
3672
3653
4388
4708
5200
5021
4869
4890
5056
5097
5261
5343
5577
5455
4773
5633
5455
4338
4188
5589
5458
5286
4949
4989
5299
5458
5647
5940
6132
6057
5766
5625
5405
5283
4974
4837
5689
5588
5662
5710
5607
5275
5652
6144
6186
6108
5767
5697
5703
5886
6158
6186
6186
6186
5933
5851
5609
5379
5462
5512
5266
5267
5310
5353
5342
5297
5776
6186
6186
6186
6047
1208
1292
1417
1607
1720
1762
1818
1906
2000
2073
5773
5787
5869
5350
0
5344
5322
5245
5114
4992
5411
5749
1565
1479
1444
1390
1393
1368
1388
1402
1452
1560
5571
5355
5125
5170
5262
5307
5251
5330
5352
5284
5056
4796
5093
1457
1412
1324
1295
1367
1443
1471
1482
1512
1559
1630
1680
5064
4904
4915
4984
4862
4907
4948
4934
4816
4647
4461
1738
1757
1741
1717
1718
1718
1657
1667
1687
1710
1737
1763
4752
4648
4752
4774
4784
4861
3151
1807
1833
1812
3305
4582
4555
4585
4645
4599
4681
4677
4836
4969
5156
5127
5036
4973
1759
4791
4849
4928
5044
4973
2552
1883
1871
2981
4912
5463
5882
5846
5678
5324
5400
5707
5859
6034
6186
6186
6186
5935
5607
5366
5178
5220
5276
5526
5326
4817
5095
5278
5240
5668
6152
6169
6018
5773
5757
5910
6024
1077
6186
6186
1330
1430
5629
5473
5554
5616
5699
5291
5358
5407
5439
5388
5191
5435
1556
1484
1483
1392
1339
1256
1235
1257
1242
1294
1421
1648
1955
2093
2157
5305
5332
5258
5306
5545
5670
4815
4578
4817
5163
5304
5378
5257
5200
5216
5260
5286
5569
5663
5741
1259
1984
2098
2190
2187
5083
5466
5434
5492
5517
5330
5039
4837
5192
5320
5432
5288
5280
5238
5184
5316
5568
5686
5753
5585
5352
5131
5000
4934
5010
4585
4322
2763
2190
1362
1153
1412
1847
3585
2615
2233
3140
4317
4607
4729
4716
4699
4885
4700
4617
4807
4934
5089
5110
3892
1496
1598
1647
1542
3563
1976
2906
3715
3236
2800
4456
4398
4646
4805
4806
4803
4789
4527
4127
4275
4660
4603
4261
5573
5573
5573
5574
5573
5574
5574
5812
5675
5574
5576
5581
5584
5613
5758
6062
6122
6080
5933
5820
5698
5574
5574
5574
5671
5671
5670
5671
5670
5434
5670
5901
348
348
348
348
348
348
349
350
6181
6186
6093
5970
5793
5670
5671
5671
5781
5780
5783
5778
5747
5768
5774
5999
348
348
348
348
5797
350
350
6186
6186
6186
6055
5929
5786
5786
5785
5786
5572
5577
5577
5576
5576
5577
5575
5574
5576
5577
5576
5577
5577
5577
5577
5722
5851
5899
5795
5744
5674
5590
5577
5577
5505
5505
5505
5505
5505
5505
5505
5505
5505
5505
5508
5515
5522
5527
5529
5629
5753
5782
5638
5549
5505
5505
5505
5505
4934
4934
4934
4935
4908
4921
4923
4931
4934
4934
4934
4935
4935
4938
4935
5154
5264
5169
5039
4931
4933
4933
4933
4934
4989
4994
4994
4994
4994
4994
4994
4992
4994
4994
4994
4994
4998
5000
5000
5217
5240
5208
5218
5158
5050
5033
4994
4994
5712
5711
5712
5712
5712
5708
5723
6186
6186
6058
5730
347
5800
5902
5854
6141
6186
6163
5982
5896
5734
5730
5730
5730
5817
5817
5817
5817
5817
5817
5935
6186
6186
6098
5827
5818
5959
6100
6186
6186
6186
6186
6016
5934
5818
5817
5818
5818
5726
5726
5726
5726
5726
5726
5813
6072
6065
5727
5727
5727
5731
5733
5762
6054
6173
6165
5972
5892
5734
5727
5727
5727
5594
5594
5594
5593
5593
5593
5594
5594
5594
5594
5595
5602
5608
5611
5614
5739
5842
5866
5744
5786
5704
5594
5594
5594
5540
5540
5540
5539
5540
5539
5540
5540
5540
5543
5548
5554
5559
5563
5564
5779
5885
5877
5712
5651
5545
5540
5540
5540
5109
5109
5110
5109
5110
5109
5109
5118
5128
5137
5147
5151
5154
5318
5371
5502
5468
5300
5195
5138
5130
5119
5109
5109
4937
4938
4938
4938
4938
4938
4938
4937
4940
4951
4961
4968
4973
4978
4981
5221
5338
5272
5277
5249
5119
5016
4972
4938
5744
5744
5744
5744
5744
5745
5802
6186
6186
6087
5817
5798
5910
5998
6090
6186
6186
6186
6004
5933
5756
5745
5745
5745
5709
5708
5709
5709
5709
5710
5709
5875
5762
5717
5726
5734
5740
5967
6124
6186
6186
6186
6007
5974
5760
5711
5709
5709
5760
5760
5759
5760
5760
5760
5760
6008
6061
5821
5783
5789
5795
5798
5882
6068
6186
6092
5879
5866
5774
5767
5760
5760
5754
5754
5754
5754
5754
5754
5754
5792
6153
6167
5792
349
5796
5816
6002
6133
6117
6039
5936
5950
5795
5782
5777
5772
5625
5621
5618
5618
5620
5627
5635
5668
5974
6008
349
349
5685
5691
5695
5697
5780
5819
5694
5681
5674
5664
5654
5644
5032
5023
5013
5012
5016
5025
5035
5045
5055
5065
5073
5079
5083
5084
5084
5161
5167
5118
5070
5065
5055
5047
5038
5028
4978
4957
4939
4937
4942
4961
4990
5002
5012
5020
5029
5032
5037
5038
5038
5178
5272
5223
5216
5217
5120
5034
4994
4976
5750
5743
5743
5742
5742
5745
5753
6056
5991
5838
5797
349
5958
6174
6186
6186
6186
6186
6130
6071
5828
5768
5760
5753
5825
5823
5823
5823
5822
5823
5953
6186
6186
352
352
352
352
352
5909
6186
6186
6186
6113
5998
5857
5847
5837
5827
5803
5803
5803
5803
5802
5803
5890
6136
6179
5833
347
5848
5853
5958
6064
6186
6186
6186
6023
5889
5835
5827
5819
5811
5570
5566
5565
5565
5565
5570
5582
5590
5599
5607
5615
347
5628
5633
5683
5821
5828
5852
5779
5752
5633
5598
5588
5577
5514
5514
5514
5514
5513
5514
5514
5514
5523
5531
5539
0
5667
5707
5782
5847
5835
5835
5711
5621
5535
5525
5516
5514
5140
5140
5139
5140
5140
5140
5140
5141
5147
5153
5158
5164
5168
5262
5255
5376
5291
5166
5162
5157
5151
5143
5140
5140
4825
4823
4823
4823
4822
4823
4829
4850
4880
4908
4930
4941
4944
4943
4944
5029
5131
5072
5142
5083
4948
4942
4968
4828
5639
5639
5639
5639
5638
5639
5639
5961
5965
5639
5644
5648
5651
5781
6067
6186
6186
6186
5942
5754
5639
5639
5639
5639
5761
5761
5761
5761
5761
5761
5761
5871
5945
5776
5783
347
348
349
6097
6186
6186
6186
6043
5854
5775
5768
5761
5761
0
6186
6186
6186
6186
6186
350
349
348
347
347
347
348
348
349
350
351
352
353
353
353
353
353
6186
6186
6186
6186
6186
6186
6186
6186
349
348
347
347
347
0
0
0
0
0
0
0
0
0
80
90
5976
6162
6167
6175
6186
6172
6167
6161
0
0
0
0
0
0
0
0
0
0
0
0
231
242
254
0
6156
5637
5637
5637
5637
5637
5637
5637
5637
348
347
347
347
347
348
348
350
351
352
353
5639
5637
5637
5637
5637
5478
5478
5478
5478
5478
5478
5478
5478
5478
5483
5486
5491
5495
5498
5540
5703
5764
5722
5671
5532
5485
5478
5478
5478
5556
5556
5556
5556
5556
5556
5217
350
285
349
348
347
348
348
349
350
351
352
353
353
353
353
353
5556
6186
6186
6186
6186
6186
6186
350
294
0
0
0
0
0
0
0
0
0
0
0
135
79
5990
118
5997
6186
6186
6186
6176
6186
6186
5905
0
0
0
0
0
0
0
0
571
466
363
177
313
6112
6186
318
6186
6186
6186
6186
6186
6186
6186
4241
350
350
349
349
349
349
349
349
350
351
352
353
353
353
353
353
6186
0
5919
5913
5910
5913
5918
5923
349
348
347
347
346
347
347
348
350
351
352
353
353
6019
5922
5915
5908
5484
5478
5478
5478
5477
5478
5485
5491
5498
5503
5114
4705
347
5521
5523
5606
5763
5599
5614
5507
5501
5496
5490
5484
5494
5492
5491
5491
5491
5496
5502
5508
5515
5521
5525
5527
5528
5549
5721
6040
6103
5901
5803
5803
5701
5738
5683
5496
6186
6186
6186
6186
6186
6186
6186
5745
350
349
348
349
349
349
350
351
352
353
353
353
6186
6186
6186
6186
6186
6186
6186
6186
6186
6186
352
2222
3302
4317
4203
5062
349
5784
5361
5506
4611
5056
5561
4700
6186
6186
6186
6186
6186
6186
6186
6186
6186
6186
6171
0
0
0
0
0
0
0
0
0
0
0
0
137
137
6014
126
5961
6186
6186
6186
6186
6186
6186
6186
0
0
0
0
0
0
0
0
0
0
0
0
0
340
345
353
6186
6186
6186
6186
6186
6186
6186
6186
0
0
0
0
0
0
0
0
0
0
0
0
197
6186
353
6186
6186
5740
5740
5739
5740
5740
5744
5753
5760
348
347
347
347
348
348
349
350
351
6024
5908
5786
5779
5771
5763
5756
5566
5560
5557
5556
5556
5562
5569
5576
5583
5591
5599
5605
5612
5614
5659
5826
5928
5944
6012
5864
5750
5800
5791
5555
6186
6186
6186
6186
6186
6186
6186
350
349
348
347
348
348
349
349
350
351
352
353
353
352
353
353
6186
6186
6186
6186
6186
6186
6186
351
349
252
347
347
347
348
349
0
0
0
0
0
0
353
353
353
6186
6186
6186
6186
6186
6186
6186
350
0
0
0
0
0
0
0
0
0
0
0
0
0
0
0
79
5964
6122
6186
6186
6186
6186
6186
6186
0
0
0
0
0
0
0
0
0
0
0
0
122
6092
6103
236
6123
6186
6186
6186
6186
6186
6186
6186
350
0
0
0
0
-88
-381
-302
-205
0
-204
280
353
6186
6186
6186
6186
5776
5776
5776
5776
5776
5776
5776
351
1118
1658
1648
2335
4152
3278
3502
3124
2741
2946
5794
5786
5775
5494
5209
3135
1990
1084
1486
3247
4966
5324
5324
5324
5324
5324
5324
5324
5327
5331
5331
5501
5660
5680
5626
5569
5544
5636
5463
5324
6105
6105
6105
6105
6105
6105
6104
4348
352
351
351
351
351
349
351
351
352
353
353
5535
2720
6104
6105
6105
6181
6182
6182
6181
6181
6181
3362
352
352
352
352
352
352
352
352
352
352
353
353
353
6186
6186
6186
6186
6145
6145
6145
6143
6146
6150
4657
352
351
351
351
351
351
352
352
353
353
353
353
353
5391
6161
352
6146
5815
5815
5815
5815
5815
5815
5815
4352
352
351
351
351
350
351
351
351
5705
5692
353
6101
6054
6023
5815
5815
5812
5812
5812
5811
5812
5812
5811
3763
348
348
347
347
348
348
349
350
5622
6034
5970
5875
5835
5825
5814
5811
4939
4939
4939
4939
4939
4939
4939
4939
4944
4956
4966
4974
4981
4985
5176
5367
5361
5215
5080
4959
4948
4939
4939
4939
5103
5102
5103
5103
5102
5103
5102
5103
5103
5113
5123
5130
5135
5141
5269
5345
5368
5155
5119
5112
5103
5103
5103
5103
5439
5439
5439
5439
5439
5439
5439
5522
5481
5439
5447
5449
5457
5629
5836
6048
6056
6001
5766
5601
5483
5439
5439
5439
5560
5559
5559
5559
5558
5559
5556
5557
5549
0
0
0
0
0
0
0
0
0
0
5719
5584
5530
5480
5480
5592
5592
5592
5592
5592
5592
5592
0
0
0
0
0
0
0
0
0
0
0
0
0
5592
5592
5592
5592
5469
5468
5469
5469
5469
5469
5469
5469
0
0
0
0
0
0
0
0
5770
5488
5479
5642
5601
5595
5469
5469
5449
5450
5448
5449
5450
5448
5448
5192
0
0
0
0
0
0
0
5279
5262
5249
5549
5475
5450
5449
5449
5449
5120
5120
5120
5120
5120
5120
5120
5120
5120
5125
0
5144
5152
5156
5159
5436
5428
5352
5277
5132
5123
5120
5120
5120
5035
5034
5034
5034
5034
5034
5034
5034
5034
5035
5037
5044
5050
5053
5066
5333
5459
5371
5359
5245
5212
5215
5099
5034
5757
5758
5758
5757
5758
5758
0
0
0
0
0
0
0
0
-30
0
0
0
0
5383
5498
5533
5495
5552
5514
5718
5931
5931
5931
5519
-225
0
0
0
0
0
0
0
0
0
0
0
0
5377
5485
5495
5448
5506
5488
5664
5732
5718
5483
5484
5089
0
0
0
0
0
0
0
0
0
0
0
0
5242
5395
5406
5467
5476
5651
5653
5762
5789
5652
5654
5655
2049
0
0
0
0
0
0
0
0
0
0
5131
5442
5630
5584
5641
5646
5722
5722
5722
5722
5722
5721
5722
5315
0
0
0
0
0
0
5702
5602
5219
5182
5559
5665
5719
5679
5730
5724
5159
5159
5159
5159
5159
5159
5159
5164
5173
5180
5188
5194
5198
5200
5224
5488
5523
5353
5251
5179
5172
5165
5159
5159
5261
5261
5261
5261
5261
5261
5261
5261
5272
5283
5292
5411
5305
5367
5433
5675
5606
5480
5442
5331
5374
5286
5268
5262
5942
5942
5942
5942
5941
5942
0
0
-65
0
0
0
0
0
0
202
52
0
0
5587
5954
5960
5965
5961
5942
6027
6025
6024
6024
5687
0
0
108
0
0
0
0
0
0
0
0
0
0
5221
5437
5668
5675
5681
5544
5638
5774
5652
5494
5545
0
0
0
0
0
0
0
0
0
0
0
0
0
5194
5494
5465
5525
5533
5671
5767
5762
5759
5745
5686
5677
0
0
0
0
0
0
0
0
0
0
0
5207
5430
5650
5659
5668
5676
5592
5592
5592
5592
5592
5592
5592
-376
0
0
0
0
5525
0
0
141
5641
5876
5515
5646
5731
5605
5596
5592
5063
5063
5063
5063
5063
5063
5063
5063
5044
0
0
0
5086
5089
5127
5339
5351
5235
5099
5072
5067
5063
5063
5063
5013
5014
5013
5013
5014
5013
5013
5013
5014
4271
3881
5039
5040
5043
5044
5261
5381
5325
5240
5220
5313
0
5065
5013
5813
5813
5813
5813
5813
5813
5813
6047
5936
5835
5843
5853
5859
5923
6099
6186
6186
6186
6186
6144
6138
5832
5828
5823
6040
6036
5974
5774
5503
5456
0
0
-23
0
0
0
0
0
0
0
0
0
0
0
5381
5471
5479
5486
5643
5683
5722
5658
5660
5659
0
0
0
0
0
0
0
1759
0
0
0
0
0
5305
5423
5635
5639
5643
5623
5697
5767
5787
5625
5624
5612
0
0
0
0
0
0
0
0
5573
0
0
0
0
5367
5597
5602
5608
5557
5563
5663
5842
5852
5631
5560
0
0
0
0
0
0
0
0
0
0
0
5208
5325
5482
5554
5559
5566
5311
5307
5305
5303
5303
5304
5310
5318
5327
5335
0
0
0
0
0
-54
5463
5527
5370
5332
5340
5322
5317
5312
5170
5167
5165
5165
5165
5165
5172
5181
5190
5198
5205
5210
5215
5218
5235
5542
5748
5657
5565
5454
5610
5427
5261
5181
5998
5996
5995
5993
5734
0
0
0
0
0
0
0
0
0
0
118
176
0
0
0
0
5273
5282
5292
5137
5140
5204
5123
4936
5156
0
0
0
0
0
0
0
0
192
480
463
283
3873
4678
5062
5144
5123
5313
5647
5778
5803
6081
5438
5469
-136
0
0
0
0
0
0
0
188
341
269
84
0
0
4966
5085
4979
4748
4714
4862
4981
5248
4901
4779
4942
2206
0
0
0
0
0
0
0
0
0
0
4468
4490
4890
5096
5107
5024
5427
5457
5453
5751
5710
5695
5356
0
0
0
-149
0
0
0
0
0
4990
6142
5468
0
5140
5402
5468
5296
5548
5586
4427
4028
5232
4919
5226
4929
4508
4598
4731
4804
5038
5257
5226
5110
5154
5135
5063
5131
5147
5139
1740
1164
1612
1537
1447
1447
1319
1390
1424
1189
998
1035
976
842
774
833
846
874
964
2832
4758
5279
5269
5055
5059
5099
5292
5605
5589
5473
5002
4877
0
0
0
0
0
0
0
0
0
0
0
0
0
0
525
628
5044
5019
5674
5702
5268
5087
4773
4701
0
-456
-213
0
0
0
0
0
0
0
0
0
0
0
0
0
0
4231
4356
4462
4570
4419
4135
0
-95
-104
-445
-246
0
0
0
0
0
127
124
0
-727
-379
0
0
0
4299
4347
4545
4699
4587
4424
4227
4568
0
-125
-1
0
0
0
0
0
0
0
-712
-337
-515
-18
377
0
4345
4232
4586
4579
4693
4417
4346
4617
0
-6
0
0
0
0
0
0
4490
2719
-515
-195
-224
0
4871
4848
4801
4954
5041
4962
4933
4839
4913
5252
4891
0
0
0
0
5099
5319
5529
5589
5639
5555
5357
5355
952
1032
5199
5244
5576
5531
5571
5542
5225
5292
5022
4786
4937
4897
4839
4730
4888
5060
5206
5716
5666
5276
5215
5809
5808
5270
5136
4894
5995
6010
6024
6054
6097
6094
0
6163
0
0
0
0
0
0
0
-36
-135
-131
-54
0
0
0
4775
4659
4674
4859
4938
5354
4708
4714
0
-477
242
0
0
0
0
0
277
442
387
163
0
4371
4973
5051
4860
4528
4690
4836
4883
4822
4305
4246
4204
124
36
0
0
4349
0
0
0
276
368
207
5029
0
5397
5326
5344
5206
5293
5615
5582
5509
5317
5282
5142
0
0
0
0
0
0
5066
5014
4960
5024
4991
5154
5041
5603
5304
5330
5231
5770
5526
5275
5051
4991
5247
4863
4301
0
10
0
0
0
0
0
5036
0
0
4624
4672
5081
5110
5362
5691
5367
5396
5538
5424
5314
5174
5430
5196
5413
0
0
0
0
0
-8
5095
5092
5197
5207
5502
5382
5400
5488
5517
5184
5222
5251
5316
5378
5419
5197
4943
5073
5040
5036
5270
5359
5529
5662
5880
5921
5555
5521
5716
5557
5554
5493
5530
5018
5095
5053
4867
4413
4227
-295
-662
-367
-77
0
0
0
0
0
0
0
-244
-213
-213
0
0
0
4364
4517
4537
4525
4495
4068
-204
-223
-391
-202
0
-318
0
0
0
0
243
224
0
0
0
-204
0
4675
4528
4759
4937
4733
4753
4660
4691
-197
-751
178
0
0
0
0
28
197
368
368
22
0
-350
0
0
4837
4558
4978
5889
5466
5302
4963
0
4815
0
0
-232
-262
-259
0
0
0
0
-308
-224
0
0
705
686
727
5102
5020
5375
5498
5484
5330
5064
4957
0
0
-94
-198
-73
0
0
-397
0
0
4331
-518
-193
5159
5308
5262
5197
5240
5253
5292
5302
5326
5345
5332
4988
0
0
0
0
5434
5440
0
0
0
0
4867
5081
5293
5267
5186
5051
4978
4989
4990
5075
5160
5236
5035
4732
4672
4710
4711
4793
4762
5091
5388
5710
5489
5335
4997
751
5110
5134
5156
5180
5159
5131
5093
4952
4477
4257
-69
-550
-368
-117
0
255
0
0
0
0
-63
-234
-401
-115
0
416
4412
4233
4198
4316
4428
4322
4020
3966
-552
-1011
-791
-402
-238
-49
0
-101
-222
-110
-193
-363
-614
-354
0
0
0
4091
4060
4299
4308
4238
3766
-193
-990
0
-1104
-914
-503
0
0
0
0
211
195
0
0
-881
-177
-250
-212
3710
3641
3804
3761
3878
3596
-407
-645
-904
-889
-695
-655
-379
-399
0
0
0
0
-812
-936
-513
-124
-216
-188
3754
3858
3970
4065
4052
3861
-217
-159
-462
0
4023
0
0
0
0
0
0
-778
-647
-590
-335
0
0
4535
4527
4787
4857
4852
0
4819
4806
5064
4659
4701
4602
4858
4861
4839
5059
5424
0
0
4953
5050
5227
4869
4394
4376
4477
4979
5011
5089
5071
5037
4959
4868
4169
4298
4534
4545
0
4656
4824
5029
5163
5008
4727
0
4899
4843
4443
4564
4695
4509
4696
4639
4590
4049
-217
-629
0
-861
-470
-218
-74
-872
0
0
0
0
0
0
0
-476
-232
-260
-326
4206
4441
4534
4430
3930
-605
0
360
318
97
0
0
0
0
55
204
8
0
0
0
-555
-415
-451
-395
4628
4593
4684
4612
4506
-455
0
301
336
0
0
0
0
167
252
417
271
0
0
0
-449
-448
-507
-452
4436
4393
4628
4627
4401
4438
-848
0
0
0
0
17
0
0
0
0
0
0
0
0
-378
-382
-438
4365
4824
4776
4763
4616
4507
4522
-192
0
0
0
0
0
0
0
0
0
0
-714
0
-581
-71
-50
4628
4462
4881
4796
4717
4749
4664
4678
4580
0
-183
-78
-201
4349
4550
4617
4448
4561
-229
-358
-263
0
4641
4597
4491
4545
4134
4210
4307
4452
4583
4950
4890
4519
594
628
548
686
1023
1006
852
4896
4933
4659
4352
4593
4856
4771
4775
4680
4137
4227
4157
4311
3716
-610
342
307
0
-972
-714
-647
-412
-601
-639
-839
242
286
469
616
-650
-464
-507
-502
3579
3636
3824
3708
3492
-481
598
607
0
0
-1209
-1028
-759
-978
-995
113
545
535
398
378
-187
-127
-183
-129
4180
4437
4421
4342
-236
-256
152
581
588
434
83
0
-37
0
0
372
304
0
0
3042
-180
-202
-117
-154
3962
4211
4260
4276
4009
-10
-205
3305
3509
2751
0
0
-1039
-818
-829
-811
-887
-1078
3067
3681
-43
0
0
0
4247
4123
4162
4379
3972
-148
-547
2745
2502
0
0
0
0
0
-880
-723
-795
0
725
-697
-252
-327
-350
-349
4086
4164
4094
4079
4118
4060
0
-380
-431
-326
-21
0
4395
4430
4393
349
-101
-267
-405
0
0
4106
4138
4603
4380
4283
4193
4185
4228
4171
4276
4424
4479
4367
4190
4143
3992
4441
4755
4584
4441
0
-52
0
4451
4366
4364
4278
3924
4205
4105
4111
3865
-126
0
37
0
0
-1600
0
0
62
213
349
211
33
20
-654
-105
-72
-117
-124
3914
4148
4259
4101
3733
-335
52
0
0
0
-739
-642
-580
-753
-907
0
219
157
107
0
-179
-238
-228
-300
3597
3835
3867
3809
3479
-471
0
354
309
68
-822
-651
-520
-631
-760
432
274
156
162
0
-507
-469
-509
3551
3637
3788
3825
3874
3614
3610
-725
0
0
0
-1103
-980
-632
-569
-554
-458
-654
-1024
0
-847
-309
-237
-173
-217
4093
4173
4363
4442
4278
4199
-109
-838
-989
-880
-722
-582
-130
0
0
0
-205
-559
-833
-482
-68
-58
-137
-174
4070
3970
4000
3934
3925
3969
-63
-28
-346
4197
513
835
1077
1091
885
747
0
-126
-213
0
0
0
4170
4099
4418
4485
4371
4428
4379
4439
4441
4352
468
797
1107
1343
1874
5377
5319
4997
0
0
0
582
4621
4358
4473
4550
4614
4792
4647
4610
4446
4478
444
501
0
0
0
0
5615
220
207
0
0
0
0
353
650
702
4987
4920
4742
4856
4932
4690
4516
4443
370
-474
-285
-233
-125
-20
0
0
-217
-392
219
293
-776
-123
366
0
4454
4376
4431
4485
4537
4429
4157
0
-524
-1079
-978
-688
-444
-122
0
-118
-317
-676
-991
0
-891
-251
0
0
0
4220
4245
4387
4404
4420
4048
0
-337
-852
0
0
0
0
-819
-710
-709
-750
0
0
0
-648
-13
0
-47
-22
3899
3954
3984
4042
3794
-221
-566
-1041
-1142
-1134
-985
-1258
0
0
0
0
-974
0
-962
-422
-95
-61
-131
3851
4428
4492
4443
4387
4423
4345
4396
3974
3983
4094
870
1113
4216
5091
5181
4858
0
-157
0
601
4525
4540
4456
4485
4166
4235
4181
4190
4109
4082
4118
4218
4708
4239
4002
4807
4878
5224
5340
4851
4105
-362
-324
-49
4120
4044
4072
3993
3530
3681
3583
3540
2985
2886
621
318
0
0
-932
-770
-525
-700
-971
0
370
640
531
419
208
0
3018
2913
2838
2962
3014
2995
2685
435
901
637
0
0
-1352
-1151
-765
-978
0
248
695
902
714
570
318
75
89
2812
2844
2946
2985
2969
2695
309
815
0
131
0
0
-1358
-1077
0
0
361
0
0
557
399
151
0
2772
2811
2948
3048
3137
3106
2949
2912
15
0
0
0
-1295
-1048
-746
-654
-769
0
0
0
0
161
-880
-849
-908
-869
-863
3179
3187
3230
3139
-910
0
0
0
-1432
-1254
-1045
-560
-436
-439
-800
0
0
0
-880
-733
-669
-706
-578
3585
3688
3584
3622
3461
-417
-357
-643
-691
-567
-408
-239
0
-402
1878
0
0
0
-946
-455
4292
4214
4247
1275
-180
-161
-222
-166
4260
4382
4471
4470
4673
5079
5244
5265
5362
5297
5221
4681
3991
-983
-751
-342
-214
4297
4262
4311
3993
2377
-299
1217
3460
3270
0
0
0
543
0
390
668
705
762
753
733
0
445
288
4142
4300
4319
0
0
-885
-667
-650
-856
0
3345
513
502
295
0
0
274
384
566
622
630
666
392
258
4153
4077
4024
3919
4153
4274
4228
4244
3930
3859
374
837
819
622
243
250
415
575
723
724
777
717
414
254
0
3435
3316
3285
3589
3518
3566
3897
3367
3295
-1091
0
0
0
0
0
0
0
138
199
250
281
0
0
-727
-670
-755
-726
3412
3371
3428
3480
3428
3356
-1203
0
-1278
-1006
-1009
0
0
0
0
0
0
0
0
-778
3774
3733
3737
-362
-127
-8
-35
0
0
-62
-67
-435
-481
-467
-395
-354
2850
3451
4001
3692
3094
3332
3918
4030
3993
3288
1348
-108
-56
0
0
0
0
-9
0
0
-278
-447
-656
-667
-188
-482
-620
4349
4028
3809
4161
4662
5127
5197
5063
4770
4681
2581
676
905
4099
4070
-964
0
0
0
0
0
0
0
45
0
0
153
0
0
-838
-670
3591
3597
3407
3536
3524
3476
2969
2655
0
0
0
0
0
0
0
0
0
0
0
0
0
0
3635
3703
3806
-1044
-1032
-881
-277
-940
283
0
2200
2265
2868
3623
4093
4364
3913
160
302
375
510
522
0
285
3329
3265
3169
0
-823
-726
-541
-480
-679
-892
2351
2576
2537
2883
201
177
0
0
111
118
0
0
0
0
3752
3980
4041
4067
4210
2970
4344
3830
4266
4096
3231
0
43
0
0
82
96
0
0
0
0
0
0
0
3401
3361
3251
3334
3873
4065
4149
4271
3666
3665
3526
3035
2729
-1273
-1261
-1199
285
-1173
0
0
0
0
0
-821
-611
3432
3373
3362
3442
3413
3412
3477
3422
3385
3423
3373
3362
3284
3301
3355
3516
3420
3342
3072
2795
2855
2610
3030
3321
3279
3300
3217
2399
2421
2419
2277
0
0
0
0
0
0
0
0
0
0
0
0
0
0
0
0
1771
1019
0
0
0
0
2021
1892
0
0
0
0
0
0
0
0
0
0
0
0
0
0
0
0
0
0
1646
1583
1757
1924
2025
1965
0
0
0
0
0
0
0
0
954
0
0
0
0
0
0
1224
923
766
790
0
719
687
682
0
738
748
0
0
0
0
0
0
617
702
991
1307
0
0
0
946
738
557
564
600
466
2623
2644
2651
474
501
603
0
0
0
0
0
0
0
0
0
0
0
0
951
728
0
0
2082
2569
2638
2599
2607
2612
2654
2489
1933
2041
2447
2628
2874
2970
2845
2615
613
0
354
2758
2925
2918
2708
0
-1130
-861
-876
-858
-935
-935
-947
-900
-1231
-900
-713
-533
1676
3512
1117
-675
6
529
1979
1165
-590
-578
-524
-562
-499
-346
-9
0
0
-328
-644
2715
0
0
0
0
0
103
344
0
0
0
0
0
129
3229
3488
3413
-562
-448
-176
-25
-62
3599
3079
-1245
0
0
0
-1374
-1276
0
0
0
456
664
543
0
137
-793
-691
3246
3283
3034
3238
3128
3269
2980
3040
0
0
0
46
0
0
0
0
0
0
0
0
0
0
0
0
0
2607
2923
2899
2967
3050
2773
2825
0
0
0
0
0
0
0
0
0
0
0
0
0
0
0
-1055
2887
2928
2928
3001
2170
214
82
2010
2469
0
0
0
0
0
0
0
0
0
0
0
0
0
2937
2877
2867
2908
3026
-687
-761
-762
-729
676
1748
2557
2539
2868
1769
1762
3117
2399
3326
2942
2367
2435
2820
3269
2085
-733
-761
-741
-617
-666
-554
-662
-661
-606
-655
-774
-840
-714
-508
-375
-162
-182
-449
-758
1428
2832
2910
3260
3418
3359
3349
3395
2970
3128
3228
3124
2855
2902
285
714
362
108
0
0
0
0
0
531
0
832
416
0
0
0
0
2873
3176
3173
3218
3162
3159
3198
600
896
662
443
37
-966
-551
318
683
897
1135
960
665
389
0
-875
3126
3128
2897
2995
3059
3051
2689
2694
0
0
0
0
0
0
0
0
0
0
0
0
0
413
285
0
2908
2840
2938
3244
3342
3303
2881
2391
85
0
0
0
0
0
0
19
0
0
0
0
0
0
538
296
2214
2211
2308
2362
2294
2530
2599
2279
0
0
0
0
0
0
285
174
0
0
0
0
0
0
2459
2427
2447
2515
1837
408
123
862
2568
2929
2896
2543
2416
2543
2706
2925
2980
2989
2762
0
0
0
0
2980
2910
2890
-1083
-1140
-805
-734
-799
-813
-786
-852
-859
-974
2880
3123
3283
3540
4037
3889
3594
-635
-1033
0
0
-716
-671
-671
-774
3191
2906
2867
2899
2808
220
0
0
0
0
0
0
0
0
537
938
0
0
0
0
0
458
0
0
0
0
2278
2312
2377
197
0
0
0
0
0
0
376
504
568
0
0
0
0
0
681
432
0
172
195
2408
2489
2583
2426
2339
109
0
0
0
0
100
0
36
256
0
0
0
0
0
565
0
0
2423
2419
2557
2654
2755
2908
2591
2593
0
0
0
0
0
0
0
0
0
0
0
0
0
0
0
0
0
2552
2758
2747
2873
2919
2718
2749
0
0
0
0
0
0
0
285
0
0
0
0
0
0
-1126
-1154
-1103
2842
3294
3226
3194
3228
3177
3217
3080
0
0
-1317
-908
-745
-705
-812
-994
0
0
0
0
-782
3182
3176
3217
3151
3499
1018
-514
-468
-520
1214
3530
3438
2851
3434
3486
3639
3999
3795
3591
3244
2906
2859
-936
3395
3450
3451
3501
3445
3056
1561
-804
-866
1591
2712
0
0
0
0
1907
2120
2164
2048
1944
1560
0
1473
1815
2390
2625
-1034
-1097
-1057
-956
-745
-642
-675
-846
-903
2297
1503
1835
2087
1705
749
2786
2834
2511
2155
1757
0
0
2703
3208
1818
-849
-922
-735
-794
-685
-706
-849
-821
0
1449
1684
0
-1332
0
3176
3090
2905
2532
0
0
0
-932
-787
3245
3160
3169
3010
-265
-231
-296
-300
-242
1295
3509
3238
3265
3424
2364
3185
3356
1792
-103
472
2046
906
-287
-232
-260
-252
-205
-87
-79
-34
-79
-13
-54
-41
-11
-122
-140
-187
0
2731
770
1119
1404
2998
3472
3471
2154
0
0
0
0
-192
-336
-1752
-1472
-253
-266
-218
-476
-523
-248
0
0
0
0
155
-200
-704
-793
-568
-229
-248
-220
-291
-249
-306
-320
-275
-340
-350
-308
-370
-630
-714
-477
-137
0
0
0
0
-399
2240
2834
3181
3753
3703
3693
3726
3664
3545
2235
2665
3535
3570
3555
3189
0
2976
2906
3133
3281
3465
3307
2954
0
0
0
0
2878
3573
3680
3609
3581
2187
-718
-664
-649
0
2733
2946
2150
1999
2350
2526
2816
2893
2777
2619
0
0
0
0
-1127
3231
3293
3225
3219
3308
3249
3275
3299
3243
3255
2945
2179
2014
2392
2595
2795
2850
2861
2672
2453
1965
1868
2247
2889
3114
3091
3070
1353
-636
-645
-606
-551
-634
-696
-707
-710
1723
3146
3240
3467
3724
3722
3700
3411
2865
2812
2836
3197
3382
3418
3383
3389
-636
-645
-554
-551
-686
-697
-707
-657
1512
3094
3292
3416
3724
3775
3649
3450
2865
2765
2836
3241
3382
3381
3383
3389
